{
    "@context": "https://schema.org",
    "@type": "FAQPage",
    "mainEntity": [
      {
        "@type": "Question",
        "name": "What is Eclipse IDE Working Group?",
        "acceptedAnswer": {
          "@type": "Answer",
          "text": "<p>The Eclipse IDE Working Group is formed to ensure the continued sustainability, integrity, evolution, and adoption of the Eclipse IDE suite of products and related technologies.<p>"
        }
      }
    ]
  }
  